Wrangling multilevel data in the tidyverse – Monica Thieu, PhD
…
Let’s take a peek at the first few rows of the data.

avocado_raw

# A tibble: 18,249 × 13
   date       avg_price total_volume PLU4046_sold PLU4225_sold PLU4770_sold
   <date>         <dbl>        <dbl>        <dbl>        <dbl>        <dbl>
 1 2015-12-27      1.33       64237.        1037.       54455.         48.2
 2 2015-12-20      1.35       54877.         674.       44639.         58.3
 3 2015-12-13      0.93      118220.         795.      109150.        130. 
 4 2015-12-06      1.08       78992.        1132        71976.         72.6
 5 2015-11-29      1.28       51040.         941.       43838.         75.8
 6 2015-11-22      1.26       55980.        1184.       48068.         43.6
 7 2015-11-15      0.99       83454.        1369.       73673.         93.3
 8 2015-11-08      0.98      109428.         704.      101815.         80  
 9 2015-11-01      1.02       99811.        1022.       87316.         85.3
10 2015-10-25      1.07       74339.         842.       64757.        113  
# ℹ 18,239 more rows
# ℹ 7 more variables: total_bags <dbl>, small_bags <dbl>, large_bags <dbl>,
#   xlarge_bags <dbl>, type <chr>, year <int>, region <chr>
…
A latent benefit of removing unwanted columns in the data is that when we print the tibble to console to inspect the first several rows, we can see more columns that were originally pushed off to the side.

avocado

# A tibble: 15,545 × 6
   date       avg_price total_volume type          year region
   <date>         <dbl>        <dbl> <chr>        <int> <chr> 
 1 2015-12-27      1.33       64237. conventional  2015 Albany
 2 2015-12-20      1.35       54877. conventional  2015 Albany
 3 2015-12-13      0.93      118220. conventional  2015 Albany
 4 2015-12-06      1.08       78992. conventional  2015 Albany
 5 2015-11-29      1.28       51040. conventional  2015 Albany
 6 2015-11-22      1.26       55980. conventional  2015 Albany
 7 2015-11-15      0.99       83454. conventional  2015 Albany
 8 2015-11-08      0.98      109428. conventional  2015 Albany
 9 2015-11-01      1.02       99811. conventional  2015 Albany
10 2015-10-25      1.07       74339. conventional  2015 Albany
# ℹ 15,535 more rows
…
avocado %>%
  group_by(region, type) %>%
  summarize(mean_total_volume = mean(total_volume_log10),
            sd_total_volume = sd(total_volume_log10))

`summarise()` has grouped output by 'region'. You can override using the
`.groups` argument.

# A tibble: 92 × 4
# Groups:   region [46]
   region              type         mean_total_volume sd_total_volume
   <chr>               <chr>                    <dbl>           <dbl>
 1 Albany              conventional              4.95          0.140 
 2 Albany              organic                   3.29          0.205 
 3 Atlanta             conventional              5.70          0.0899
 4 Atlanta             organic                   4.00          0.236 
 5 BaltimoreWashington conventional              5.88          0.0722
 6 BaltimoreWashington organic                   4.31          0.225 
 7 Boise               conventional              4.91          0.0987
 8 Boise               organic                   3.34          0.209 
 9 Boston              conventional              5.74          0.0811
10 Boston              organic                   4.03          0.359 
# ℹ 82 more rows

Above, we group_by() both region and type to get two separate means and SDs of weekly avocados sold in each region, one value each for conventional and organic avocados.

We can pivot_wider() our observation-level data, to get total_volume into two columns, one for the conventional avocados and one for the organic avocados, for each week. Thus, instead of two rows per week per metro region, one for each avocado type, we’ll have one row per week per metro region, with the relevant values for each avocado type in their own columns.

avocado %>%
  # Here, selecting the id_cols and the ONE values_from column I want to pivot out
  select(year, date, region, type, total_volume_log10) %>%
  pivot_wider(names_from = type,
              values_from = total_volume_log10,
              names_prefix = "total_volume_")

# A tibble: 7,774 × 5
    year date       region total_volume_conventional total_volume_organic
   <int> <date>     <chr>                      <dbl>                <dbl>
 1  2015 2015-12-27 Albany                      4.81                 3.00
 2  2015 2015-12-20 Albany                      4.74                 3.07
 3  2015 2015-12-13 Albany                      5.07                 3.00
 4  2015 2015-12-06 Albany                      4.90                 3.06
 5  2015 2015-11-29 Albany                      4.71                 2.92
 6  2015 2015-11-22 Albany                      4.75                 2.93
 7  2015 2015-11-15 Albany                      4.92                 3.08
 8  2015 2015-11-08 Albany                      5.04                 3.12
 9  2015 2015-11-01 Albany                      5.00                 3.01
10  2015 2015-10-25 Albany                      4.87                 3.07
# ℹ 7,764 more rows

Instructor’s note: Above, I’ve select()-ed to remove all the other outcome columns other than total_volume before pivoting my dataframe. If you wanted to pivot all outcome columns in the data by type, you could, as of tidyr >=1.0.0. The least verbose way to do this would be to feed a negative column name vector into the values_from argument to exclude ID columns from the set of columns to pivot, like so:

avocado %>%
  pivot_wider(names_from = type, values_from = -c(year, date, region))

# A tibble: 7,774 × 11
   date        year region avg_price_conventional avg_price_organic
   <date>     <int> <chr>                   <dbl>             <dbl>
 1 2015-12-27  2015 Albany                   1.33              1.83
 2 2015-12-20  2015 Albany                   1.35              1.89
 3 2015-12-13  2015 Albany                   0.93              1.85
 4 2015-12-06  2015 Albany                   1.08              1.84
 5 2015-11-29  2015 Albany                   1.28              1.94
 6 2015-11-22  2015 Albany                   1.26              1.94
 7 2015-11-15  2015 Albany                   0.99              1.89
 8 2015-11-08  2015 Albany                   0.98              1.88
 9 2015-11-01  2015 Albany                   1.02              1.88
10 2015-10-25  2015 Albany                   1.07              1.83
# ℹ 7,764 more rows
# ℹ 6 more variables: total_volume_conventional <dbl>,
#   total_volume_organic <dbl>, type_conventional <chr>, type_organic <chr>,
#   total_volume_log10_conventional <dbl>, total_volume_log10_organic <dbl>
…
Once the data is pivoted, we can now use mutate() to subtract the organic total dollars spent from the conventional total dollars spent. Then, we can generate similar mean/SD summaries as we did before. Finally, we can make the little tibble print preview a bit more informative by using arrange() to sort the data such that the metro areas with highest conventional - organic sales volume differences get sorted to the top of the tibble.

avocado %>%
  select(year, date, region, type, total_volume_log10) %>%
  pivot_wider(names_from = type,
              values_from = total_volume_log10,
              names_prefix = "total_volume_") %>%
  mutate(total_volume_diff = total_volume_conventional - total_volume_organic) %>%
  group_by(region) %>%
  summarize(mean_volume_diff = mean(total_volume_diff),
            sd_volume_diff = sd(total_volume_diff)) %>%
  arrange(desc(mean_volume_diff))

# A tibble: 46 × 3
   region            mean_volume_diff sd_volume_diff
   <chr>                        <dbl>          <dbl>
 1 MiamiFtLauderdale             2.25          0.285
 2 Tampa                         2.01          0.228
 3 PhoenixTucson                 1.99          0.134
 4 NewOrleansMobile              1.91          0.247
 5 GrandRapids                   1.84          0.390
 6 Orlando                       1.84          0.170
 7 DallasFtWorth                 1.80          0.177
 8 Houston                       1.76          0.235
 9 Sacramento                    1.76          0.149
10 Jacksonville                  1.74          0.171
# ℹ 36 more rows
…
avo_by_region <- avocado %>%
  nest(sales = -region)

A nested dataframe like the one we just created has two main column types: key columns and list-columns of sub-dataframes.

Key columns are the columns you might group_by() before, say, generating summary statistics with summarize(). They act as a label for the data contained in that row’s list-columns. List-columns do not contain a single atomic element in each row, but instead _a whole sub-data frame containing all the observation-level data corresponding to that key level.

Instructor’s note: A deeper exploration of the uses for and behaviors of list-columns is beyond the scope of the current tutorial. This tutorial assumes learners have never intentionally worked with non-dataframe list objects, and demonstrates only the case of list-columns containing data nested from an original “normal” dataframe. R for Data Science’s section on dataframe list-columns is a useful reference for more information on list-columns.

Now, for list-columns, instead of actually printing the content of the vector, tibble output gives us a blurb about the object contained inside of each list element.

avo_by_region

# A tibble: 46 × 2
   region              sales             
   <chr>               <list>            
 1 Albany              <tibble [338 × 6]>
 2 Atlanta             <tibble [338 × 6]>
 3 BaltimoreWashington <tibble [338 × 6]>
 4 Boise               <tibble [338 × 6]>
 5 Boston              <tibble [338 × 6]>
 6 BuffaloRochester    <tibble [338 × 6]>
 7 Charlotte           <tibble [338 × 6]>
 8 Chicago             <tibble [338 × 6]>
 9 CincinnatiDayton    <tibble [338 × 6]>
10 Columbus            <tibble [338 × 6]>
# ℹ 36 more rows

We can see here that each row of sales, the list-column generated by nesting the data, contains a sub-tibble with 338 rows of the other 6 columns of data corresponding to each level of region. The data is still there, safe and sound!

nest() creates list-columns with the general argument format list_col = cols_to_put_into_list_col. Importantly, the columns you wish to put into the list-column can be specified using select() syntax. We can harness this to use the - to exclude specific key columns, and put all other non-key columns into the list-column. For example, if you wanted to hold out multiple key columns, for example, both region and type to split up the sub-data by conventional and organic:

avocado %>%
  nest(sales = -c(region, type))

# A tibble: 92 × 3
   type         region              sales             
   <chr>        <chr>               <list>            
 1 conventional Albany              <tibble [169 × 5]>
 2 conventional Atlanta             <tibble [169 × 5]>
 3 conventional BaltimoreWashington <tibble [169 × 5]>
 4 conventional Boise               <tibble [169 × 5]>
 5 conventional Boston              <tibble [169 × 5]>
 6 conventional BuffaloRochester    <tibble [169 × 5]>
 7 conventional Charlotte           <tibble [169 × 5]>
 8 conventional Chicago             <tibble [169 × 5]>
 9 conventional CincinnatiDayton    <tibble [169 × 5]>
10 conventional Columbus            <tibble [169 × 5]>
# ℹ 82 more rows

In this way, you can flexibly choose which columns of data to fold into your list-column, and which key-columns you want to fold by.

When you want to unnest the data and go back to original long form, you might not be surprised to hear that the function we’ll need is unnest().

avo_by_region %>%
  unnest(sales)

# A tibble: 15,545 × 7
   region date       avg_price total_volume type         year total_volume_log10
   <chr>  <date>         <dbl>        <dbl> <chr>       <int>              <dbl>
 1 Albany 2015-12-27      1.33       64237. convention…  2015               4.81
 2 Albany 2015-12-20      1.35       54877. convention…  2015               4.74
 3 Albany 2015-12-13      0.93      118220. convention…  2015               5.07
 4 Albany 2015-12-06      1.08       78992. convention…  2015               4.90
 5 Albany 2015-11-29      1.28       51040. convention…  2015               4.71
 6 Albany 2015-11-22      1.26       55980. convention…  2015               4.75
 7 Albany 2015-11-15      0.99       83454. convention…  2015               4.92
 8 Albany 2015-11-08      0.98      109428. convention…  2015               5.04
 9 Albany 2015-11-01      1.02       99811. convention…  2015               5.00
10 Albany 2015-10-25      1.07       74339. convention…  2015               4.87
# ℹ 15,535 more rows
…
There are definitely still instances where $ indexing columns is the cleanest way to index. However, in this tutorial we’ll be using pipe-safe tidyverse indexing functions moving forward so that we can stick with the %>% pipe for consistency.

Once we’ve used pull() to index a single column, we can use another tidyverse pipe-safe helper function, pluck(), this time for indexing elements of a vector. As a rule of thumb, pull() does what $ indexing does, and pluck() does what [] indexing does. Thus, the below code indexes the sales column, and then specifically the first element in that column vector.

avo_by_region %>%
  pull(sales) %>%
  pluck(1)

# A tibble: 338 × 6
   date       avg_price total_volume type          year total_volume_log10
   <date>         <dbl>        <dbl> <chr>        <int>              <dbl>
 1 2015-12-27      1.33       64237. conventional  2015               4.81
 2 2015-12-20      1.35       54877. conventional  2015               4.74
 3 2015-12-13      0.93      118220. conventional  2015               5.07
 4 2015-12-06      1.08       78992. conventional  2015               4.90
 5 2015-11-29      1.28       51040. conventional  2015               4.71
 6 2015-11-22      1.26       55980. conventional  2015               4.75
 7 2015-11-15      0.99       83454. conventional  2015               4.92
 8 2015-11-08      0.98      109428. conventional  2015               5.04
 9 2015-11-01      1.02       99811. conventional  2015               5.00
10 2015-10-25      1.07       74339. conventional  2015               4.87
# ℹ 328 more rows

We can also use the dplyr tools we already know to subset avo_by_region() to pluck() the data belonging to a particular region.

avo_by_region %>%
  # This should give us a one-row dataframe
  # so we know the first element is the one we want
  filter(region == "NewYork") %>%
  pull(sales) %>%
  pluck(1)

# A tibble: 338 × 6
   date       avg_price total_volume type          year total_volume_log10
   <date>         <dbl>        <dbl> <chr>        <int>              <dbl>
 1 2015-12-27      1.17     1129876. conventional  2015               6.05
 2 2015-12-20      1.23     1139348. conventional  2015               6.06
 3 2015-12-13      1.12     1254805. conventional  2015               6.10
 4 2015-12-06      1.2      1068972. conventional  2015               6.03
 5 2015-11-29      1.16      999170. conventional  2015               6.00
 6 2015-11-22      1.14     1111803. conventional  2015               6.05
 7 2015-11-15      1.04     1357393. conventional  2015               6.13
 8 2015-11-08      1.13     1406262. conventional  2015               6.15
 9 2015-11-01      1.06     2180520. conventional  2015               6.34
10 2015-10-25      1.23     1048046. conventional  2015               6.02
# ℹ 328 more rows

Notice that once you’ve got only one row in a nested dataframe, pluck()-ing to unlist the data in the list-column is equivalent to using unnest() to unfold all rows of the list-column.

avo_by_region %>%
  filter(region == "NewYork") %>%
  unnest(sales)

# A tibble: 338 × 7
   region  date       avg_price total_volume type        year total_volume_log10
   <chr>   <date>         <dbl>        <dbl> <chr>      <int>              <dbl>
 1 NewYork 2015-12-27      1.17     1129876. conventio…  2015               6.05
 2 NewYork 2015-12-20      1.23     1139348. conventio…  2015               6.06
 3 NewYork 2015-12-13      1.12     1254805. conventio…  2015               6.10
 4 NewYork 2015-12-06      1.2      1068972. conventio…  2015               6.03
 5 NewYork 2015-11-29      1.16      999170. conventio…  2015               6.00
 6 NewYork 2015-11-22      1.14     1111803. conventio…  2015               6.05
 7 NewYork 2015-11-15      1.04     1357393. conventio…  2015               6.13
 8 NewYork 2015-11-08      1.13     1406262. conventio…  2015               6.15
 9 NewYork 2015-11-01      1.06     2180520. conventio…  2015               6.34
10 NewYork 2015-10-25      1.23     1048046. conventio…  2015               6.02
# ℹ 328 more rows
…
and MANY more

In general, it’s worth always checking to see if the function you plan to call on a vector is vectorized, and then you can use it on your vector or dataframe column without needing any additional looping.

Tidy vectorizing

If you use mutate() for your everyday column-wise data manipulation needs, using vectorized functions is smooth. In fact, mutate() is built to encourage you to use vectorized functions for column manipulation.

If we go back to the Hass avocado sale data, we can see this at work. For example, let’s take another look at the code we used earlier to create a new column for the weekly total number of avocados sold, but log-10 transformed. Earlier, we saw order-of-magnitude differences in avocado sales between different regions, so we log-transformed the data to get it to be more normally distributed.

avocado %>%
  mutate(total_volume_log10 = log10(total_volume)) %>%
  select(region, date, total_volume, total_volume_log10)

# A tibble: 15,545 × 4
   region date       total_volume total_volume_log10
   <chr>  <date>            <dbl>              <dbl>
 1 Albany 2015-12-27       64237.               4.81
 2 Albany 2015-12-20       54877.               4.74
 3 Albany 2015-12-13      118220.               5.07
 4 Albany 2015-12-06       78992.               4.90
 5 Albany 2015-11-29       51040.               4.71
 6 Albany 2015-11-22       55980.               4.75
 7 Albany 2015-11-15       83454.               4.92
 8 Albany 2015-11-08      109428.               5.04
 9 Albany 2015-11-01       99811.               5.00
10 Albany 2015-10-25       74339.               4.87
# ℹ 15,535 more rows
…
Here, we’ll see how we can use map() to calculate subject-level summary statistics without discarding observation-level data from the dataframe.

First, let’s re-nest our observation-level avocado data, but this time, we’ll do it by region and by avocado type (conventional vs organic).

avo_by_region_type <- avocado %>%
  # Notice the -c() select() syntax to exclude TWO key columns
  # from the list-column
  nest(sales = -c(region, type))

Now, to see what the new, nested df looks like:

avo_by_region_type

# A tibble: 92 × 3
   type         region              sales             
   <chr>        <chr>               <list>            
 1 conventional Albany              <tibble [169 × 5]>
 2 conventional Atlanta             <tibble [169 × 5]>
 3 conventional BaltimoreWashington <tibble [169 × 5]>
 4 conventional Boise               <tibble [169 × 5]>
 5 conventional Boston              <tibble [169 × 5]>
 6 conventional BuffaloRochester    <tibble [169 × 5]>
 7 conventional Charlotte           <tibble [169 × 5]>
 8 conventional Chicago             <tibble [169 × 5]>
 9 conventional CincinnatiDayton    <tibble [169 × 5]>
10 conventional Columbus            <tibble [169 × 5]>
# ℹ 82 more rows
…
