How to prepare and teach an R lesson – Monica Thieu, PhD
…
Allow your formative assessments to break the lesson into manageable chunks. If you have implemented the right number and scope of checkpoints, each check-in question should serve as the end to a bite-sized (5-10 min) piece of lesson. These bites are a good size for you, because you get to take breaks from speaking and survey learners’ progress, and a good size for learners, because they get to take a breather from new information and use the check-in question to practice what they’ve just learned.

Teach less than you think you have time for. An instructor teaching a particular lesson for the first time is likely to find that the lesson simply takes way longer than originally planned. Running out of time before you’ve finished the lesson guarantees that learners won’t reach the objective! Plan for less time than you’ll actually have. The first time I teach a new lesson, I plan it for 2/3 of the allotted class time, and it usually comes out right.

Teach one way to do things. One of the great (and terrible) features of R is that there’s often many, many different ways to solve a problem. While some might be less verbose, more generalizable, etc., than others, ultimately sometimes you get to two different techniques that differ only on personal taste. For example, there might be two different ways to teach the pivot_longer() technique demonstrated earlier.

Using names_sep to break up column names:

iris %>% 
  rename_with(tolower) %>% 
  pivot_longer(cols = -species,
               names_to = c("part", ".value"),
               names_sep = "\\.")

# A tibble: 300 × 4
   species part  length width
   <fct>   <chr>  <dbl> <dbl>
 1 setosa  sepal    5.1   3.5
 2 setosa  petal    1.4   0.2
 3 setosa  sepal    4.9   3  
 4 setosa  petal    1.4   0.2
 5 setosa  sepal    4.7   3.2
 6 setosa  petal    1.3   0.2
 7 setosa  sepal    4.6   3.1
 8 setosa  petal    1.5   0.2
 9 setosa  sepal    5     3.6
10 setosa  petal    1.4   0.2
# ℹ 290 more rows

Using names_pattern to break up column names:

iris %>% 
  rename_with(tolower) %>% 
  pivot_longer(cols = -species,
               names_to = c("part", ".value"),
               names_pattern = "(.*)\\.(.*)")

# A tibble: 300 × 4
   species part  length width
   <fct>   <chr>  <dbl> <dbl>
 1 setosa  sepal    5.1   3.5
 2 setosa  petal    1.4   0.2
 3 setosa  sepal    4.9   3  
 4 setosa  petal    1.4   0.2
 5 setosa  sepal    4.7   3.2
 6 setosa  petal    1.3   0.2
 7 setosa  sepal    4.6   3.1
 8 setosa  petal    1.5   0.2
 9 setosa  sepal    5     3.6
10 setosa  petal    1.4   0.2
# ℹ 290 more rows
…
